2021-08-31 20:36:28.8042 Info Message Template Auto Format enabled
2021-08-31 20:36:28.8132 Info Loading assembly: NLog.Extended
2021-08-31 20:36:28.8282 Error Error loading extensions. Exception: System.IO.FileNotFoundException: Could not load file or assembly 'NLog.Extended' or one of its dependencies. The system cannot find the file specified.
File name: 'NLog.Extended'
   at System.Reflection.RuntimeAssembly._nLoad(AssemblyName fileName, String codeBase, Evidence assemblySecurity, RuntimeAssembly locationHint, StackCrawlMark& stackMark, IntPtr pPrivHostBinder, Boolean throwOnFileNotFound, Boolean forIntrospection, Boolean suppressSecurityChecks)
   at System.Reflection.RuntimeAssembly.InternalLoadAssemblyName(AssemblyName assemblyRef, Evidence assemblySecurity, RuntimeAssembly reqAssembly, StackCrawlMark& stackMark, IntPtr pPrivHostBinder, Boolean throwOnFileNotFound, Boolean forIntrospection, Boolean suppressSecurityChecks)
   at System.Reflection.RuntimeAssembly.InternalLoad(String assemblyString, Evidence assemblySecurity, StackCrawlMark& stackMark, IntPtr pPrivHostBinder, Boolean forIntrospection)
   at System.Reflection.RuntimeAssembly.InternalLoad(String assemblyString, Evidence assemblySecurity, StackCrawlMark& stackMark, Boolean forIntrospection)
   at System.Reflection.Assembly.Load(String assemblyString)
   at NLog.Internal.AssemblyHelpers.LoadFromName(String assemblyName)
   at NLog.Config.LoggingConfigurationParser.ParseExtensionWithAssembly(String assemblyName, String prefix)

=== Pre-bind state information ===
LOG: DisplayName = NLog.Extended
 (Partial)
WRN: Partial binding information was supplied for an assembly:
WRN: Assembly Name: NLog.Extended | Domain ID: 2
WRN: A partial bind occurs when only part of the assembly display name is provided.
WRN: This might result in the binder loading an incorrect assembly.
WRN: It is recommended to provide a fully specified textual identity for the assembly,
WRN: that consists of the simple name, version, culture, and public key token.
WRN: See whitepaper http://go.microsoft.com/fwlink/?LinkId=109270 for more information and common solutions to this issue.
LOG: Appbase = file:///E:/Soboft Technology/Source Tree/GoldenBlock/goldenblock/GoldenblockApi/
LOG: Initial PrivatePath = E:\Soboft Technology\Source Tree\GoldenBlock\goldenblock\GoldenblockApi\bin
Calling assembly : NLog, Version=4.0.0.0, Culture=neutral, PublicKeyToken=5120e14c03d0593c.
===
LOG: This bind starts in default load context.
LOG: Using application configuration file: E:\Soboft Technology\Source Tree\GoldenBlock\goldenblock\GoldenblockApi\web.config
LOG: Using host configuration file: C:\Windows\Microsoft.NET\Framework64\v4.0.30319\aspnet.config
LOG: Using machine configuration file from C:\Windows\Microsoft.NET\Framework64\v4.0.30319\config\machine.config.
LOG: Policy not being applied to reference at this time (private, custom, partial, or location-based assembly bind).
LOG: Attempting download of new URL file:///C:/Windows/Microsoft.NET/Framework64/v4.0.30319/Temporary ASP.NET Files/goldenblockapi/28abe010/91022ec4/NLog.Extended.DLL.
LOG: Attempting download of new URL file:///C:/Windows/Microsoft.NET/Framework64/v4.0.30319/Temporary ASP.NET Files/goldenblockapi/28abe010/91022ec4/NLog.Extended/NLog.Extended.DLL.
LOG: Attempting download of new URL file:///E:/Soboft Technology/Source Tree/GoldenBlock/goldenblock/GoldenblockApi/bin/NLog.Extended.DLL.
LOG: Attempting download of new URL file:///E:/Soboft Technology/Source Tree/GoldenBlock/goldenblock/GoldenblockApi/bin/NLog.Extended/NLog.Extended.DLL.
LOG: Attempting download of new URL file:///C:/Windows/Microsoft.NET/Framework64/v4.0.30319/Temporary ASP.NET Files/goldenblockapi/28abe010/91022ec4/NLog.Extended.EXE.
LOG: Attempting download of new URL file:///C:/Windows/Microsoft.NET/Framework64/v4.0.30319/Temporary ASP.NET Files/goldenblockapi/28abe010/91022ec4/NLog.Extended/NLog.Extended.EXE.
LOG: Attempting download of new URL file:///E:/Soboft Technology/Source Tree/GoldenBlock/goldenblock/GoldenblockApi/bin/NLog.Extended.EXE.
LOG: Attempting download of new URL file:///E:/Soboft Technology/Source Tree/GoldenBlock/goldenblock/GoldenblockApi/bin/NLog.Extended/NLog.Extended.EXE.

2021-08-31 20:36:28.8282 Warn Error has been raised. Exception: NLog.NLogConfigurationException: Error loading extensions: NLog.Extended ---> System.IO.FileNotFoundException: Could not load file or assembly 'NLog.Extended' or one of its dependencies. The system cannot find the file specified.
   at System.Reflection.RuntimeAssembly._nLoad(AssemblyName fileName, String codeBase, Evidence assemblySecurity, RuntimeAssembly locationHint, StackCrawlMark& stackMark, IntPtr pPrivHostBinder, Boolean throwOnFileNotFound, Boolean forIntrospection, Boolean suppressSecurityChecks)
   at System.Reflection.RuntimeAssembly.InternalLoadAssemblyName(AssemblyName assemblyRef, Evidence assemblySecurity, RuntimeAssembly reqAssembly, StackCrawlMark& stackMark, IntPtr pPrivHostBinder, Boolean throwOnFileNotFound, Boolean forIntrospection, Boolean suppressSecurityChecks)
   at System.Reflection.RuntimeAssembly.InternalLoad(String assemblyString, Evidence assemblySecurity, StackCrawlMark& stackMark, IntPtr pPrivHostBinder, Boolean forIntrospection)
   at System.Reflection.RuntimeAssembly.InternalLoad(String assemblyString, Evidence assemblySecurity, StackCrawlMark& stackMark, Boolean forIntrospection)
   at System.Reflection.Assembly.Load(String assemblyString)
   at NLog.Internal.AssemblyHelpers.LoadFromName(String assemblyName)
   at NLog.Config.LoggingConfigurationParser.ParseExtensionWithAssembly(String assemblyName, String prefix)
   --- End of inner exception stack trace ---
2021-08-31 20:36:28.9281 Info Adding target FileTarget(Name=error)
2021-08-31 20:36:28.9311 Info Adding target FileTarget(Name=info)
2021-08-31 20:36:28.9856 Info Found 36 configuration items
2021-08-31 20:36:29.0036 Info Configuration initialized.
2021-08-31 20:36:29.0168 Info NLog, Version=4.0.0.0, Culture=neutral, PublicKeyToken=5120e14c03d0593c. File version: 4.6.3.9764. Product version: 4.6.3.
2021-08-31 23:23:10.7774 Info AppDomain Shutting down. Logger closing...
2021-08-31 23:23:10.8154 Info Logger has been shut down.
2021-09-01 11:29:13.0203 Info Message Template Auto Format enabled
2021-09-01 11:29:13.0303 Info Loading assembly: NLog.Extended
2021-09-01 11:29:13.0453 Error Error loading extensions. Exception: System.IO.FileNotFoundException: Could not load file or assembly 'NLog.Extended' or one of its dependencies. The system cannot find the file specified.
File name: 'NLog.Extended'
   at System.Reflection.RuntimeAssembly._nLoad(AssemblyName fileName, String codeBase, Evidence assemblySecurity, RuntimeAssembly locationHint, StackCrawlMark& stackMark, IntPtr pPrivHostBinder, Boolean throwOnFileNotFound, Boolean forIntrospection, Boolean suppressSecurityChecks)
   at System.Reflection.RuntimeAssembly.InternalLoadAssemblyName(AssemblyName assemblyRef, Evidence assemblySecurity, RuntimeAssembly reqAssembly, StackCrawlMark& stackMark, IntPtr pPrivHostBinder, Boolean throwOnFileNotFound, Boolean forIntrospection, Boolean suppressSecurityChecks)
   at System.Reflection.RuntimeAssembly.InternalLoad(String assemblyString, Evidence assemblySecurity, StackCrawlMark& stackMark, IntPtr pPrivHostBinder, Boolean forIntrospection)
   at System.Reflection.RuntimeAssembly.InternalLoad(String assemblyString, Evidence assemblySecurity, StackCrawlMark& stackMark, Boolean forIntrospection)
   at System.Reflection.Assembly.Load(String assemblyString)
   at NLog.Internal.AssemblyHelpers.LoadFromName(String assemblyName)
   at NLog.Config.LoggingConfigurationParser.ParseExtensionWithAssembly(String assemblyName, String prefix)

=== Pre-bind state information ===
LOG: DisplayName = NLog.Extended
 (Partial)
WRN: Partial binding information was supplied for an assembly:
WRN: Assembly Name: NLog.Extended | Domain ID: 2
WRN: A partial bind occurs when only part of the assembly display name is provided.
WRN: This might result in the binder loading an incorrect assembly.
WRN: It is recommended to provide a fully specified textual identity for the assembly,
WRN: that consists of the simple name, version, culture, and public key token.
WRN: See whitepaper http://go.microsoft.com/fwlink/?LinkId=109270 for more information and common solutions to this issue.
LOG: Appbase = file:///E:/Soboft Technology/Source Tree/GoldenBlock/goldenblock/GoldenblockApi/
LOG: Initial PrivatePath = E:\Soboft Technology\Source Tree\GoldenBlock\goldenblock\GoldenblockApi\bin
Calling assembly : NLog, Version=4.0.0.0, Culture=neutral, PublicKeyToken=5120e14c03d0593c.
===
LOG: This bind starts in default load context.
LOG: Using application configuration file: E:\Soboft Technology\Source Tree\GoldenBlock\goldenblock\GoldenblockApi\web.config
LOG: Using host configuration file: C:\Windows\Microsoft.NET\Framework64\v4.0.30319\aspnet.config
LOG: Using machine configuration file from C:\Windows\Microsoft.NET\Framework64\v4.0.30319\config\machine.config.
LOG: Policy not being applied to reference at this time (private, custom, partial, or location-based assembly bind).
LOG: Attempting download of new URL file:///C:/Windows/Microsoft.NET/Framework64/v4.0.30319/Temporary ASP.NET Files/goldenblockapi/28abe010/91022ec4/NLog.Extended.DLL.
LOG: Attempting download of new URL file:///C:/Windows/Microsoft.NET/Framework64/v4.0.30319/Temporary ASP.NET Files/goldenblockapi/28abe010/91022ec4/NLog.Extended/NLog.Extended.DLL.
LOG: Attempting download of new URL file:///E:/Soboft Technology/Source Tree/GoldenBlock/goldenblock/GoldenblockApi/bin/NLog.Extended.DLL.
LOG: Attempting download of new URL file:///E:/Soboft Technology/Source Tree/GoldenBlock/goldenblock/GoldenblockApi/bin/NLog.Extended/NLog.Extended.DLL.
LOG: Attempting download of new URL file:///C:/Windows/Microsoft.NET/Framework64/v4.0.30319/Temporary ASP.NET Files/goldenblockapi/28abe010/91022ec4/NLog.Extended.EXE.
LOG: Attempting download of new URL file:///C:/Windows/Microsoft.NET/Framework64/v4.0.30319/Temporary ASP.NET Files/goldenblockapi/28abe010/91022ec4/NLog.Extended/NLog.Extended.EXE.
LOG: Attempting download of new URL file:///E:/Soboft Technology/Source Tree/GoldenBlock/goldenblock/GoldenblockApi/bin/NLog.Extended.EXE.
LOG: Attempting download of new URL file:///E:/Soboft Technology/Source Tree/GoldenBlock/goldenblock/GoldenblockApi/bin/NLog.Extended/NLog.Extended.EXE.

2021-09-01 11:29:13.0453 Warn Error has been raised. Exception: NLog.NLogConfigurationException: Error loading extensions: NLog.Extended ---> System.IO.FileNotFoundException: Could not load file or assembly 'NLog.Extended' or one of its dependencies. The system cannot find the file specified.
   at System.Reflection.RuntimeAssembly._nLoad(AssemblyName fileName, String codeBase, Evidence assemblySecurity, RuntimeAssembly locationHint, StackCrawlMark& stackMark, IntPtr pPrivHostBinder, Boolean throwOnFileNotFound, Boolean forIntrospection, Boolean suppressSecurityChecks)
   at System.Reflection.RuntimeAssembly.InternalLoadAssemblyName(AssemblyName assemblyRef, Evidence assemblySecurity, RuntimeAssembly reqAssembly, StackCrawlMark& stackMark, IntPtr pPrivHostBinder, Boolean throwOnFileNotFound, Boolean forIntrospection, Boolean suppressSecurityChecks)
   at System.Reflection.RuntimeAssembly.InternalLoad(String assemblyString, Evidence assemblySecurity, StackCrawlMark& stackMark, IntPtr pPrivHostBinder, Boolean forIntrospection)
   at System.Reflection.RuntimeAssembly.InternalLoad(String assemblyString, Evidence assemblySecurity, StackCrawlMark& stackMark, Boolean forIntrospection)
   at System.Reflection.Assembly.Load(String assemblyString)
   at NLog.Internal.AssemblyHelpers.LoadFromName(String assemblyName)
   at NLog.Config.LoggingConfigurationParser.ParseExtensionWithAssembly(String assemblyName, String prefix)
   --- End of inner exception stack trace ---
2021-09-01 11:29:13.2232 Info Adding target FileTarget(Name=error)
2021-09-01 11:29:13.2262 Info Adding target FileTarget(Name=info)
2021-09-01 11:29:13.2834 Info Found 36 configuration items
2021-09-01 11:29:13.3063 Info Configuration initialized.
2021-09-01 11:29:13.3063 Info NLog, Version=4.0.0.0, Culture=neutral, PublicKeyToken=5120e14c03d0593c. File version: 4.6.3.9764. Product version: 4.6.3.
2021-09-01 11:36:48.3280 Info AppDomain Shutting down. Logger closing...
2021-09-01 11:36:48.3639 Info Logger has been shut down.
2021-09-01 11:38:16.4384 Info Message Template Auto Format enabled
2021-09-01 11:38:16.4483 Info Loading assembly: NLog.Extended
2021-09-01 11:38:16.4483 Error Error loading extensions. Exception: System.IO.FileNotFoundException: Could not load file or assembly 'NLog.Extended' or one of its dependencies. The system cannot find the file specified.
File name: 'NLog.Extended'
   at System.Reflection.RuntimeAssembly._nLoad(AssemblyName fileName, String codeBase, Evidence assemblySecurity, RuntimeAssembly locationHint, StackCrawlMark& stackMark, IntPtr pPrivHostBinder, Boolean throwOnFileNotFound, Boolean forIntrospection, Boolean suppressSecurityChecks)
   at System.Reflection.RuntimeAssembly.InternalLoadAssemblyName(AssemblyName assemblyRef, Evidence assemblySecurity, RuntimeAssembly reqAssembly, StackCrawlMark& stackMark, IntPtr pPrivHostBinder, Boolean throwOnFileNotFound, Boolean forIntrospection, Boolean suppressSecurityChecks)
   at System.Reflection.RuntimeAssembly.InternalLoad(String assemblyString, Evidence assemblySecurity, StackCrawlMark& stackMark, IntPtr pPrivHostBinder, Boolean forIntrospection)
   at System.Reflection.RuntimeAssembly.InternalLoad(String assemblyString, Evidence assemblySecurity, StackCrawlMark& stackMark, Boolean forIntrospection)
   at System.Reflection.Assembly.Load(String assemblyString)
   at NLog.Internal.AssemblyHelpers.LoadFromName(String assemblyName)
   at NLog.Config.LoggingConfigurationParser.ParseExtensionWithAssembly(String assemblyName, String prefix)

=== Pre-bind state information ===
LOG: DisplayName = NLog.Extended
 (Partial)
WRN: Partial binding information was supplied for an assembly:
WRN: Assembly Name: NLog.Extended | Domain ID: 4
WRN: A partial bind occurs when only part of the assembly display name is provided.
WRN: This might result in the binder loading an incorrect assembly.
WRN: It is recommended to provide a fully specified textual identity for the assembly,
WRN: that consists of the simple name, version, culture, and public key token.
WRN: See whitepaper http://go.microsoft.com/fwlink/?LinkId=109270 for more information and common solutions to this issue.
LOG: Appbase = file:///E:/Soboft Technology/Source Tree/GoldenBlock/goldenblock/GoldenblockApi/
LOG: Initial PrivatePath = E:\Soboft Technology\Source Tree\GoldenBlock\goldenblock\GoldenblockApi\bin
Calling assembly : NLog, Version=4.0.0.0, Culture=neutral, PublicKeyToken=5120e14c03d0593c.
===
LOG: This bind starts in default load context.
LOG: Using application configuration file: E:\Soboft Technology\Source Tree\GoldenBlock\goldenblock\GoldenblockApi\web.config
LOG: Using host configuration file: C:\Windows\Microsoft.NET\Framework64\v4.0.30319\aspnet.config
LOG: Using machine configuration file from C:\Windows\Microsoft.NET\Framework64\v4.0.30319\config\machine.config.
LOG: Policy not being applied to reference at this time (private, custom, partial, or location-based assembly bind).
LOG: Attempting download of new URL file:///C:/Windows/Microsoft.NET/Framework64/v4.0.30319/Temporary ASP.NET Files/goldenblockapi/28abe010/91022ec4/NLog.Extended.DLL.
LOG: Attempting download of new URL file:///C:/Windows/Microsoft.NET/Framework64/v4.0.30319/Temporary ASP.NET Files/goldenblockapi/28abe010/91022ec4/NLog.Extended/NLog.Extended.DLL.
LOG: Attempting download of new URL file:///E:/Soboft Technology/Source Tree/GoldenBlock/goldenblock/GoldenblockApi/bin/NLog.Extended.DLL.
LOG: Attempting download of new URL file:///E:/Soboft Technology/Source Tree/GoldenBlock/goldenblock/GoldenblockApi/bin/NLog.Extended/NLog.Extended.DLL.
LOG: Attempting download of new URL file:///C:/Windows/Microsoft.NET/Framework64/v4.0.30319/Temporary ASP.NET Files/goldenblockapi/28abe010/91022ec4/NLog.Extended.EXE.
LOG: Attempting download of new URL file:///C:/Windows/Microsoft.NET/Framework64/v4.0.30319/Temporary ASP.NET Files/goldenblockapi/28abe010/91022ec4/NLog.Extended/NLog.Extended.EXE.
LOG: Attempting download of new URL file:///E:/Soboft Technology/Source Tree/GoldenBlock/goldenblock/GoldenblockApi/bin/NLog.Extended.EXE.
LOG: Attempting download of new URL file:///E:/Soboft Technology/Source Tree/GoldenBlock/goldenblock/GoldenblockApi/bin/NLog.Extended/NLog.Extended.EXE.

2021-09-01 11:38:16.4653 Warn Error has been raised. Exception: NLog.NLogConfigurationException: Error loading extensions: NLog.Extended ---> System.IO.FileNotFoundException: Could not load file or assembly 'NLog.Extended' or one of its dependencies. The system cannot find the file specified.
   at System.Reflection.RuntimeAssembly._nLoad(AssemblyName fileName, String codeBase, Evidence assemblySecurity, RuntimeAssembly locationHint, StackCrawlMark& stackMark, IntPtr pPrivHostBinder, Boolean throwOnFileNotFound, Boolean forIntrospection, Boolean suppressSecurityChecks)
   at System.Reflection.RuntimeAssembly.InternalLoadAssemblyName(AssemblyName assemblyRef, Evidence assemblySecurity, RuntimeAssembly reqAssembly, StackCrawlMark& stackMark, IntPtr pPrivHostBinder, Boolean throwOnFileNotFound, Boolean forIntrospection, Boolean suppressSecurityChecks)
   at System.Reflection.RuntimeAssembly.InternalLoad(String assemblyString, Evidence assemblySecurity, StackCrawlMark& stackMark, IntPtr pPrivHostBinder, Boolean forIntrospection)
   at System.Reflection.RuntimeAssembly.InternalLoad(String assemblyString, Evidence assemblySecurity, StackCrawlMark& stackMark, Boolean forIntrospection)
   at System.Reflection.Assembly.Load(String assemblyString)
   at NLog.Internal.AssemblyHelpers.LoadFromName(String assemblyName)
   at NLog.Config.LoggingConfigurationParser.ParseExtensionWithAssembly(String assemblyName, String prefix)
   --- End of inner exception stack trace ---
2021-09-01 11:38:16.6762 Info Adding target FileTarget(Name=error)
2021-09-01 11:38:16.7052 Info Adding target FileTarget(Name=info)
2021-09-01 11:38:16.7751 Info Found 36 configuration items
2021-09-01 11:38:16.8031 Info Configuration initialized.
2021-09-01 11:38:16.8061 Info NLog, Version=4.0.0.0, Culture=neutral, PublicKeyToken=5120e14c03d0593c. File version: 4.6.3.9764. Product version: 4.6.3.
2021-09-01 11:39:30.9896 Info AppDomain Shutting down. Logger closing...
2021-09-01 11:39:31.0196 Info Logger has been shut down.
2021-09-01 11:40:41.5791 Info Message Template Auto Format enabled
2021-09-01 11:40:41.6051 Info Loading assembly: NLog.Extended
2021-09-01 11:40:41.6221 Error Error loading extensions. Exception: System.IO.FileNotFoundException: Could not load file or assembly 'NLog.Extended' or one of its dependencies. The system cannot find the file specified.
File name: 'NLog.Extended'
   at System.Reflection.RuntimeAssembly._nLoad(AssemblyName fileName, String codeBase, Evidence assemblySecurity, RuntimeAssembly locationHint, StackCrawlMark& stackMark, IntPtr pPrivHostBinder, Boolean throwOnFileNotFound, Boolean forIntrospection, Boolean suppressSecurityChecks)
   at System.Reflection.RuntimeAssembly.InternalLoadAssemblyName(AssemblyName assemblyRef, Evidence assemblySecurity, RuntimeAssembly reqAssembly, StackCrawlMark& stackMark, IntPtr pPrivHostBinder, Boolean throwOnFileNotFound, Boolean forIntrospection, Boolean suppressSecurityChecks)
   at System.Reflection.RuntimeAssembly.InternalLoad(String assemblyString, Evidence assemblySecurity, StackCrawlMark& stackMark, IntPtr pPrivHostBinder, Boolean forIntrospection)
   at System.Reflection.RuntimeAssembly.InternalLoad(String assemblyString, Evidence assemblySecurity, StackCrawlMark& stackMark, Boolean forIntrospection)
   at System.Reflection.Assembly.Load(String assemblyString)
   at NLog.Internal.AssemblyHelpers.LoadFromName(String assemblyName)
   at NLog.Config.LoggingConfigurationParser.ParseExtensionWithAssembly(String assemblyName, String prefix)

=== Pre-bind state information ===
LOG: DisplayName = NLog.Extended
 (Partial)
WRN: Partial binding information was supplied for an assembly:
WRN: Assembly Name: NLog.Extended | Domain ID: 6
WRN: A partial bind occurs when only part of the assembly display name is provided.
WRN: This might result in the binder loading an incorrect assembly.
WRN: It is recommended to provide a fully specified textual identity for the assembly,
WRN: that consists of the simple name, version, culture, and public key token.
WRN: See whitepaper http://go.microsoft.com/fwlink/?LinkId=109270 for more information and common solutions to this issue.
LOG: Appbase = file:///E:/Soboft Technology/Source Tree/GoldenBlock/goldenblock/GoldenblockApi/
LOG: Initial PrivatePath = E:\Soboft Technology\Source Tree\GoldenBlock\goldenblock\GoldenblockApi\bin
Calling assembly : NLog, Version=4.0.0.0, Culture=neutral, PublicKeyToken=5120e14c03d0593c.
===
LOG: This bind starts in default load context.
LOG: Using application configuration file: E:\Soboft Technology\Source Tree\GoldenBlock\goldenblock\GoldenblockApi\web.config
LOG: Using host configuration file: C:\Windows\Microsoft.NET\Framework64\v4.0.30319\aspnet.config
LOG: Using machine configuration file from C:\Windows\Microsoft.NET\Framework64\v4.0.30319\config\machine.config.
LOG: Policy not being applied to reference at this time (private, custom, partial, or location-based assembly bind).
LOG: Attempting download of new URL file:///C:/Windows/Microsoft.NET/Framework64/v4.0.30319/Temporary ASP.NET Files/goldenblockapi/28abe010/91022ec4/NLog.Extended.DLL.
LOG: Attempting download of new URL file:///C:/Windows/Microsoft.NET/Framework64/v4.0.30319/Temporary ASP.NET Files/goldenblockapi/28abe010/91022ec4/NLog.Extended/NLog.Extended.DLL.
LOG: Attempting download of new URL file:///E:/Soboft Technology/Source Tree/GoldenBlock/goldenblock/GoldenblockApi/bin/NLog.Extended.DLL.
LOG: Attempting download of new URL file:///E:/Soboft Technology/Source Tree/GoldenBlock/goldenblock/GoldenblockApi/bin/NLog.Extended/NLog.Extended.DLL.
LOG: Attempting download of new URL file:///C:/Windows/Microsoft.NET/Framework64/v4.0.30319/Temporary ASP.NET Files/goldenblockapi/28abe010/91022ec4/NLog.Extended.EXE.
LOG: Attempting download of new URL file:///C:/Windows/Microsoft.NET/Framework64/v4.0.30319/Temporary ASP.NET Files/goldenblockapi/28abe010/91022ec4/NLog.Extended/NLog.Extended.EXE.
LOG: Attempting download of new URL file:///E:/Soboft Technology/Source Tree/GoldenBlock/goldenblock/GoldenblockApi/bin/NLog.Extended.EXE.
LOG: Attempting download of new URL file:///E:/Soboft Technology/Source Tree/GoldenBlock/goldenblock/GoldenblockApi/bin/NLog.Extended/NLog.Extended.EXE.

2021-09-01 11:40:41.6221 Warn Error has been raised. Exception: NLog.NLogConfigurationException: Error loading extensions: NLog.Extended ---> System.IO.FileNotFoundException: Could not load file or assembly 'NLog.Extended' or one of its dependencies. The system cannot find the file specified.
   at System.Reflection.RuntimeAssembly._nLoad(AssemblyName fileName, String codeBase, Evidence assemblySecurity, RuntimeAssembly locationHint, StackCrawlMark& stackMark, IntPtr pPrivHostBinder, Boolean throwOnFileNotFound, Boolean forIntrospection, Boolean suppressSecurityChecks)
   at System.Reflection.RuntimeAssembly.InternalLoadAssemblyName(AssemblyName assemblyRef, Evidence assemblySecurity, RuntimeAssembly reqAssembly, StackCrawlMark& stackMark, IntPtr pPrivHostBinder, Boolean throwOnFileNotFound, Boolean forIntrospection, Boolean suppressSecurityChecks)
   at System.Reflection.RuntimeAssembly.InternalLoad(String assemblyString, Evidence assemblySecurity, StackCrawlMark& stackMark, IntPtr pPrivHostBinder, Boolean forIntrospection)
   at System.Reflection.RuntimeAssembly.InternalLoad(String assemblyString, Evidence assemblySecurity, StackCrawlMark& stackMark, Boolean forIntrospection)
   at System.Reflection.Assembly.Load(String assemblyString)
   at NLog.Internal.AssemblyHelpers.LoadFromName(String assemblyName)
   at NLog.Config.LoggingConfigurationParser.ParseExtensionWithAssembly(String assemblyName, String prefix)
   --- End of inner exception stack trace ---
2021-09-01 11:40:41.8745 Info Adding target FileTarget(Name=error)
2021-09-01 11:40:41.8825 Info Adding target FileTarget(Name=info)
2021-09-01 11:40:41.9844 Info Found 36 configuration items
2021-09-01 11:40:42.0179 Info Configuration initialized.
2021-09-01 11:40:42.0179 Info NLog, Version=4.0.0.0, Culture=neutral, PublicKeyToken=5120e14c03d0593c. File version: 4.6.3.9764. Product version: 4.6.3.
2021-09-01 11:41:37.4153 Info AppDomain Shutting down. Logger closing...
2021-09-01 11:41:37.4492 Info Logger has been shut down.
2021-09-01 11:42:16.1326 Info Message Template Auto Format enabled
2021-09-01 11:42:16.1536 Info Loading assembly: NLog.Extended
2021-09-01 11:42:16.1536 Error Error loading extensions. Exception: System.IO.FileNotFoundException: Could not load file or assembly 'NLog.Extended' or one of its dependencies. The system cannot find the file specified.
File name: 'NLog.Extended'
   at System.Reflection.RuntimeAssembly._nLoad(AssemblyName fileName, String codeBase, Evidence assemblySecurity, RuntimeAssembly locationHint, StackCrawlMark& stackMark, IntPtr pPrivHostBinder, Boolean throwOnFileNotFound, Boolean forIntrospection, Boolean suppressSecurityChecks)
   at System.Reflection.RuntimeAssembly.InternalLoadAssemblyName(AssemblyName assemblyRef, Evidence assemblySecurity, RuntimeAssembly reqAssembly, StackCrawlMark& stackMark, IntPtr pPrivHostBinder, Boolean throwOnFileNotFound, Boolean forIntrospection, Boolean suppressSecurityChecks)
   at System.Reflection.RuntimeAssembly.InternalLoad(String assemblyString, Evidence assemblySecurity, StackCrawlMark& stackMark, IntPtr pPrivHostBinder, Boolean forIntrospection)
   at System.Reflection.RuntimeAssembly.InternalLoad(String assemblyString, Evidence assemblySecurity, StackCrawlMark& stackMark, Boolean forIntrospection)
   at System.Reflection.Assembly.Load(String assemblyString)
   at NLog.Internal.AssemblyHelpers.LoadFromName(String assemblyName)
   at NLog.Config.LoggingConfigurationParser.ParseExtensionWithAssembly(String assemblyName, String prefix)

=== Pre-bind state information ===
LOG: DisplayName = NLog.Extended
 (Partial)
WRN: Partial binding information was supplied for an assembly:
WRN: Assembly Name: NLog.Extended | Domain ID: 8
WRN: A partial bind occurs when only part of the assembly display name is provided.
WRN: This might result in the binder loading an incorrect assembly.
WRN: It is recommended to provide a fully specified textual identity for the assembly,
WRN: that consists of the simple name, version, culture, and public key token.
WRN: See whitepaper http://go.microsoft.com/fwlink/?LinkId=109270 for more information and common solutions to this issue.
LOG: Appbase = file:///E:/Soboft Technology/Source Tree/GoldenBlock/goldenblock/GoldenblockApi/
LOG: Initial PrivatePath = E:\Soboft Technology\Source Tree\GoldenBlock\goldenblock\GoldenblockApi\bin
Calling assembly : NLog, Version=4.0.0.0, Culture=neutral, PublicKeyToken=5120e14c03d0593c.
===
LOG: This bind starts in default load context.
LOG: Using application configuration file: E:\Soboft Technology\Source Tree\GoldenBlock\goldenblock\GoldenblockApi\web.config
LOG: Using host configuration file: C:\Windows\Microsoft.NET\Framework64\v4.0.30319\aspnet.config
LOG: Using machine configuration file from C:\Windows\Microsoft.NET\Framework64\v4.0.30319\config\machine.config.
LOG: Policy not being applied to reference at this time (private, custom, partial, or location-based assembly bind).
LOG: Attempting download of new URL file:///C:/Windows/Microsoft.NET/Framework64/v4.0.30319/Temporary ASP.NET Files/goldenblockapi/28abe010/91022ec4/NLog.Extended.DLL.
LOG: Attempting download of new URL file:///C:/Windows/Microsoft.NET/Framework64/v4.0.30319/Temporary ASP.NET Files/goldenblockapi/28abe010/91022ec4/NLog.Extended/NLog.Extended.DLL.
LOG: Attempting download of new URL file:///E:/Soboft Technology/Source Tree/GoldenBlock/goldenblock/GoldenblockApi/bin/NLog.Extended.DLL.
LOG: Attempting download of new URL file:///E:/Soboft Technology/Source Tree/GoldenBlock/goldenblock/GoldenblockApi/bin/NLog.Extended/NLog.Extended.DLL.
LOG: Attempting download of new URL file:///C:/Windows/Microsoft.NET/Framework64/v4.0.30319/Temporary ASP.NET Files/goldenblockapi/28abe010/91022ec4/NLog.Extended.EXE.
LOG: Attempting download of new URL file:///C:/Windows/Microsoft.NET/Framework64/v4.0.30319/Temporary ASP.NET Files/goldenblockapi/28abe010/91022ec4/NLog.Extended/NLog.Extended.EXE.
LOG: Attempting download of new URL file:///E:/Soboft Technology/Source Tree/GoldenBlock/goldenblock/GoldenblockApi/bin/NLog.Extended.EXE.
LOG: Attempting download of new URL file:///E:/Soboft Technology/Source Tree/GoldenBlock/goldenblock/GoldenblockApi/bin/NLog.Extended/NLog.Extended.EXE.

2021-09-01 11:42:16.1696 Warn Error has been raised. Exception: NLog.NLogConfigurationException: Error loading extensions: NLog.Extended ---> System.IO.FileNotFoundException: Could not load file or assembly 'NLog.Extended' or one of its dependencies. The system cannot find the file specified.
   at System.Reflection.RuntimeAssembly._nLoad(AssemblyName fileName, String codeBase, Evidence assemblySecurity, RuntimeAssembly locationHint, StackCrawlMark& stackMark, IntPtr pPrivHostBinder, Boolean throwOnFileNotFound, Boolean forIntrospection, Boolean suppressSecurityChecks)
   at System.Reflection.RuntimeAssembly.InternalLoadAssemblyName(AssemblyName assemblyRef, Evidence assemblySecurity, RuntimeAssembly reqAssembly, StackCrawlMark& stackMark, IntPtr pPrivHostBinder, Boolean throwOnFileNotFound, Boolean forIntrospection, Boolean suppressSecurityChecks)
   at System.Reflection.RuntimeAssembly.InternalLoad(String assemblyString, Evidence assemblySecurity, StackCrawlMark& stackMark, IntPtr pPrivHostBinder, Boolean forIntrospection)
   at System.Reflection.RuntimeAssembly.InternalLoad(String assemblyString, Evidence assemblySecurity, StackCrawlMark& stackMark, Boolean forIntrospection)
   at System.Reflection.Assembly.Load(String assemblyString)
   at NLog.Internal.AssemblyHelpers.LoadFromName(String assemblyName)
   at NLog.Config.LoggingConfigurationParser.ParseExtensionWithAssembly(String assemblyName, String prefix)
   --- End of inner exception stack trace ---
2021-09-01 11:42:16.4105 Info Adding target FileTarget(Name=error)
2021-09-01 11:42:16.4105 Info Adding target FileTarget(Name=info)
2021-09-01 11:42:16.4575 Info Found 36 configuration items
2021-09-01 11:42:16.5114 Info Configuration initialized.
2021-09-01 11:42:16.5114 Info NLog, Version=4.0.0.0, Culture=neutral, PublicKeyToken=5120e14c03d0593c. File version: 4.6.3.9764. Product version: 4.6.3.
2021-09-01 11:48:16.6641 Info AppDomain Shutting down. Logger closing...
2021-09-01 11:48:16.6991 Info Logger has been shut down.
2021-09-01 11:53:50.6885 Info Message Template Auto Format enabled
2021-09-01 11:53:50.7165 Info Loading assembly: NLog.Extended
2021-09-01 11:53:50.7524 Error Error loading extensions. Exception: System.IO.FileNotFoundException: Could not load file or assembly 'NLog.Extended' or one of its dependencies. The system cannot find the file specified.
File name: 'NLog.Extended'
   at System.Reflection.RuntimeAssembly._nLoad(AssemblyName fileName, String codeBase, Evidence assemblySecurity, RuntimeAssembly locationHint, StackCrawlMark& stackMark, IntPtr pPrivHostBinder, Boolean throwOnFileNotFound, Boolean forIntrospection, Boolean suppressSecurityChecks)
   at System.Reflection.RuntimeAssembly.InternalLoadAssemblyName(AssemblyName assemblyRef, Evidence assemblySecurity, RuntimeAssembly reqAssembly, StackCrawlMark& stackMark, IntPtr pPrivHostBinder, Boolean throwOnFileNotFound, Boolean forIntrospection, Boolean suppressSecurityChecks)
   at System.Reflection.RuntimeAssembly.InternalLoad(String assemblyString, Evidence assemblySecurity, StackCrawlMark& stackMark, IntPtr pPrivHostBinder, Boolean forIntrospection)
   at System.Reflection.RuntimeAssembly.InternalLoad(String assemblyString, Evidence assemblySecurity, StackCrawlMark& stackMark, Boolean forIntrospection)
   at System.Reflection.Assembly.Load(String assemblyString)
   at NLog.Internal.AssemblyHelpers.LoadFromName(String assemblyName)
   at NLog.Config.LoggingConfigurationParser.ParseExtensionWithAssembly(String assemblyName, String prefix)

=== Pre-bind state information ===
LOG: DisplayName = NLog.Extended
 (Partial)
WRN: Partial binding information was supplied for an assembly:
WRN: Assembly Name: NLog.Extended | Domain ID: 10
WRN: A partial bind occurs when only part of the assembly display name is provided.
WRN: This might result in the binder loading an incorrect assembly.
WRN: It is recommended to provide a fully specified textual identity for the assembly,
WRN: that consists of the simple name, version, culture, and public key token.
WRN: See whitepaper http://go.microsoft.com/fwlink/?LinkId=109270 for more information and common solutions to this issue.
LOG: Appbase = file:///E:/Soboft Technology/Source Tree/GoldenBlock/goldenblock/GoldenblockApi/
LOG: Initial PrivatePath = E:\Soboft Technology\Source Tree\GoldenBlock\goldenblock\GoldenblockApi\bin
Calling assembly : NLog, Version=4.0.0.0, Culture=neutral, PublicKeyToken=5120e14c03d0593c.
===
LOG: This bind starts in default load context.
LOG: Using application configuration file: E:\Soboft Technology\Source Tree\GoldenBlock\goldenblock\GoldenblockApi\web.config
LOG: Using host configuration file: C:\Windows\Microsoft.NET\Framework64\v4.0.30319\aspnet.config
LOG: Using machine configuration file from C:\Windows\Microsoft.NET\Framework64\v4.0.30319\config\machine.config.
LOG: Policy not being applied to reference at this time (private, custom, partial, or location-based assembly bind).
LOG: Attempting download of new URL file:///C:/Windows/Microsoft.NET/Framework64/v4.0.30319/Temporary ASP.NET Files/goldenblockapi/28abe010/91022ec4/NLog.Extended.DLL.
LOG: Attempting download of new URL file:///C:/Windows/Microsoft.NET/Framework64/v4.0.30319/Temporary ASP.NET Files/goldenblockapi/28abe010/91022ec4/NLog.Extended/NLog.Extended.DLL.
LOG: Attempting download of new URL file:///E:/Soboft Technology/Source Tree/GoldenBlock/goldenblock/GoldenblockApi/bin/NLog.Extended.DLL.
LOG: Attempting download of new URL file:///E:/Soboft Technology/Source Tree/GoldenBlock/goldenblock/GoldenblockApi/bin/NLog.Extended/NLog.Extended.DLL.
LOG: Attempting download of new URL file:///C:/Windows/Microsoft.NET/Framework64/v4.0.30319/Temporary ASP.NET Files/goldenblockapi/28abe010/91022ec4/NLog.Extended.EXE.
LOG: Attempting download of new URL file:///C:/Windows/Microsoft.NET/Framework64/v4.0.30319/Temporary ASP.NET Files/goldenblockapi/28abe010/91022ec4/NLog.Extended/NLog.Extended.EXE.
LOG: Attempting download of new URL file:///E:/Soboft Technology/Source Tree/GoldenBlock/goldenblock/GoldenblockApi/bin/NLog.Extended.EXE.
LOG: Attempting download of new URL file:///E:/Soboft Technology/Source Tree/GoldenBlock/goldenblock/GoldenblockApi/bin/NLog.Extended/NLog.Extended.EXE.

2021-09-01 11:53:50.7574 Warn Error has been raised. Exception: NLog.NLogConfigurationException: Error loading extensions: NLog.Extended ---> System.IO.FileNotFoundException: Could not load file or assembly 'NLog.Extended' or one of its dependencies. The system cannot find the file specified.
   at System.Reflection.RuntimeAssembly._nLoad(AssemblyName fileName, String codeBase, Evidence assemblySecurity, RuntimeAssembly locationHint, StackCrawlMark& stackMark, IntPtr pPrivHostBinder, Boolean throwOnFileNotFound, Boolean forIntrospection, Boolean suppressSecurityChecks)
   at System.Reflection.RuntimeAssembly.InternalLoadAssemblyName(AssemblyName assemblyRef, Evidence assemblySecurity, RuntimeAssembly reqAssembly, StackCrawlMark& stackMark, IntPtr pPrivHostBinder, Boolean throwOnFileNotFound, Boolean forIntrospection, Boolean suppressSecurityChecks)
   at System.Reflection.RuntimeAssembly.InternalLoad(String assemblyString, Evidence assemblySecurity, StackCrawlMark& stackMark, IntPtr pPrivHostBinder, Boolean forIntrospection)
   at System.Reflection.RuntimeAssembly.InternalLoad(String assemblyString, Evidence assemblySecurity, StackCrawlMark& stackMark, Boolean forIntrospection)
   at System.Reflection.Assembly.Load(String assemblyString)
   at NLog.Internal.AssemblyHelpers.LoadFromName(String assemblyName)
   at NLog.Config.LoggingConfigurationParser.ParseExtensionWithAssembly(String assemblyName, String prefix)
   --- End of inner exception stack trace ---
2021-09-01 11:53:50.9698 Info Adding target FileTarget(Name=error)
2021-09-01 11:53:50.9698 Info Adding target FileTarget(Name=info)
2021-09-01 11:53:51.0558 Info Found 36 configuration items
2021-09-01 11:53:51.1017 Info Configuration initialized.
2021-09-01 11:53:51.1017 Info NLog, Version=4.0.0.0, Culture=neutral, PublicKeyToken=5120e14c03d0593c. File version: 4.6.3.9764. Product version: 4.6.3.
2021-09-01 12:34:52.8100 Info Message Template Auto Format enabled
2021-09-01 12:34:52.8220 Info Loading assembly: NLog.Extended
2021-09-01 12:34:52.8400 Error Error loading extensions. Exception: System.IO.FileNotFoundException: Could not load file or assembly 'NLog.Extended' or one of its dependencies. The system cannot find the file specified.
File name: 'NLog.Extended'
   at System.Reflection.RuntimeAssembly._nLoad(AssemblyName fileName, String codeBase, Evidence assemblySecurity, RuntimeAssembly locationHint, StackCrawlMark& stackMark, IntPtr pPrivHostBinder, Boolean throwOnFileNotFound, Boolean forIntrospection, Boolean suppressSecurityChecks)
   at System.Reflection.RuntimeAssembly.InternalLoadAssemblyName(AssemblyName assemblyRef, Evidence assemblySecurity, RuntimeAssembly reqAssembly, StackCrawlMark& stackMark, IntPtr pPrivHostBinder, Boolean throwOnFileNotFound, Boolean forIntrospection, Boolean suppressSecurityChecks)
   at System.Reflection.RuntimeAssembly.InternalLoad(String assemblyString, Evidence assemblySecurity, StackCrawlMark& stackMark, IntPtr pPrivHostBinder, Boolean forIntrospection)
   at System.Reflection.RuntimeAssembly.InternalLoad(String assemblyString, Evidence assemblySecurity, StackCrawlMark& stackMark, Boolean forIntrospection)
   at System.Reflection.Assembly.Load(String assemblyString)
   at NLog.Internal.AssemblyHelpers.LoadFromName(String assemblyName)
   at NLog.Config.LoggingConfigurationParser.ParseExtensionWithAssembly(String assemblyName, String prefix)

=== Pre-bind state information ===
LOG: DisplayName = NLog.Extended
 (Partial)
WRN: Partial binding information was supplied for an assembly:
WRN: Assembly Name: NLog.Extended | Domain ID: 12
WRN: A partial bind occurs when only part of the assembly display name is provided.
WRN: This might result in the binder loading an incorrect assembly.
WRN: It is recommended to provide a fully specified textual identity for the assembly,
WRN: that consists of the simple name, version, culture, and public key token.
WRN: See whitepaper http://go.microsoft.com/fwlink/?LinkId=109270 for more information and common solutions to this issue.
LOG: Appbase = file:///E:/Soboft Technology/Source Tree/GoldenBlock/goldenblock/GoldenblockApi/
LOG: Initial PrivatePath = E:\Soboft Technology\Source Tree\GoldenBlock\goldenblock\GoldenblockApi\bin
Calling assembly : NLog, Version=4.0.0.0, Culture=neutral, PublicKeyToken=5120e14c03d0593c.
===
LOG: This bind starts in default load context.
LOG: Using application configuration file: E:\Soboft Technology\Source Tree\GoldenBlock\goldenblock\GoldenblockApi\web.config
LOG: Using host configuration file: C:\Windows\Microsoft.NET\Framework64\v4.0.30319\aspnet.config
LOG: Using machine configuration file from C:\Windows\Microsoft.NET\Framework64\v4.0.30319\config\machine.config.
LOG: Policy not being applied to reference at this time (private, custom, partial, or location-based assembly bind).
LOG: Attempting download of new URL file:///C:/Windows/Microsoft.NET/Framework64/v4.0.30319/Temporary ASP.NET Files/goldenblockapi/28abe010/91022ec4/NLog.Extended.DLL.
LOG: Attempting download of new URL file:///C:/Windows/Microsoft.NET/Framework64/v4.0.30319/Temporary ASP.NET Files/goldenblockapi/28abe010/91022ec4/NLog.Extended/NLog.Extended.DLL.
LOG: Attempting download of new URL file:///E:/Soboft Technology/Source Tree/GoldenBlock/goldenblock/GoldenblockApi/bin/NLog.Extended.DLL.
LOG: Attempting download of new URL file:///E:/Soboft Technology/Source Tree/GoldenBlock/goldenblock/GoldenblockApi/bin/NLog.Extended/NLog.Extended.DLL.
LOG: Attempting download of new URL file:///C:/Windows/Microsoft.NET/Framework64/v4.0.30319/Temporary ASP.NET Files/goldenblockapi/28abe010/91022ec4/NLog.Extended.EXE.
LOG: Attempting download of new URL file:///C:/Windows/Microsoft.NET/Framework64/v4.0.30319/Temporary ASP.NET Files/goldenblockapi/28abe010/91022ec4/NLog.Extended/NLog.Extended.EXE.
LOG: Attempting download of new URL file:///E:/Soboft Technology/Source Tree/GoldenBlock/goldenblock/GoldenblockApi/bin/NLog.Extended.EXE.
LOG: Attempting download of new URL file:///E:/Soboft Technology/Source Tree/GoldenBlock/goldenblock/GoldenblockApi/bin/NLog.Extended/NLog.Extended.EXE.

2021-09-01 12:34:52.8400 Warn Error has been raised. Exception: NLog.NLogConfigurationException: Error loading extensions: NLog.Extended ---> System.IO.FileNotFoundException: Could not load file or assembly 'NLog.Extended' or one of its dependencies. The system cannot find the file specified.
   at System.Reflection.RuntimeAssembly._nLoad(AssemblyName fileName, String codeBase, Evidence assemblySecurity, RuntimeAssembly locationHint, StackCrawlMark& stackMark, IntPtr pPrivHostBinder, Boolean throwOnFileNotFound, Boolean forIntrospection, Boolean suppressSecurityChecks)
   at System.Reflection.RuntimeAssembly.InternalLoadAssemblyName(AssemblyName assemblyRef, Evidence assemblySecurity, RuntimeAssembly reqAssembly, StackCrawlMark& stackMark, IntPtr pPrivHostBinder, Boolean throwOnFileNotFound, Boolean forIntrospection, Boolean suppressSecurityChecks)
   at System.Reflection.RuntimeAssembly.InternalLoad(String assemblyString, Evidence assemblySecurity, StackCrawlMark& stackMark, IntPtr pPrivHostBinder, Boolean forIntrospection)
   at System.Reflection.RuntimeAssembly.InternalLoad(String assemblyString, Evidence assemblySecurity, StackCrawlMark& stackMark, Boolean forIntrospection)
   at System.Reflection.Assembly.Load(String assemblyString)
   at NLog.Internal.AssemblyHelpers.LoadFromName(String assemblyName)
   at NLog.Config.LoggingConfigurationParser.ParseExtensionWithAssembly(String assemblyName, String prefix)
   --- End of inner exception stack trace ---
2021-09-01 12:34:52.9969 Info Adding target FileTarget(Name=error)
2021-09-01 12:34:53.0189 Info Adding target FileTarget(Name=info)
2021-09-01 12:34:53.0838 Info Found 36 configuration items
2021-09-01 12:34:53.1208 Info Configuration initialized.
2021-09-01 12:34:53.1208 Info NLog, Version=4.0.0.0, Culture=neutral, PublicKeyToken=5120e14c03d0593c. File version: 4.6.3.9764. Product version: 4.6.3.
2021-09-01 16:36:12.7223 Info AppDomain Shutting down. Logger closing...
2021-09-01 16:36:12.7752 Info Logger has been shut down.
2021-09-01 16:41:57.2363 Info Message Template Auto Format enabled
2021-09-01 16:41:57.2453 Info Loading assembly: NLog.Extended
2021-09-01 16:41:57.2453 Error Error loading extensions. Exception: System.IO.FileNotFoundException: Could not load file or assembly 'NLog.Extended' or one of its dependencies. The system cannot find the file specified.
File name: 'NLog.Extended'
   at System.Reflection.RuntimeAssembly._nLoad(AssemblyName fileName, String codeBase, Evidence assemblySecurity, RuntimeAssembly locationHint, StackCrawlMark& stackMark, IntPtr pPrivHostBinder, Boolean throwOnFileNotFound, Boolean forIntrospection, Boolean suppressSecurityChecks)
   at System.Reflection.RuntimeAssembly.InternalLoadAssemblyName(AssemblyName assemblyRef, Evidence assemblySecurity, RuntimeAssembly reqAssembly, StackCrawlMark& stackMark, IntPtr pPrivHostBinder, Boolean throwOnFileNotFound, Boolean forIntrospection, Boolean suppressSecurityChecks)
   at System.Reflection.RuntimeAssembly.InternalLoad(String assemblyString, Evidence assemblySecurity, StackCrawlMark& stackMark, IntPtr pPrivHostBinder, Boolean forIntrospection)
   at System.Reflection.RuntimeAssembly.InternalLoad(String assemblyString, Evidence assemblySecurity, StackCrawlMark& stackMark, Boolean forIntrospection)
   at System.Reflection.Assembly.Load(String assemblyString)
   at NLog.Internal.AssemblyHelpers.LoadFromName(String assemblyName)
   at NLog.Config.LoggingConfigurationParser.ParseExtensionWithAssembly(String assemblyName, String prefix)

=== Pre-bind state information ===
LOG: DisplayName = NLog.Extended
 (Partial)
WRN: Partial binding information was supplied for an assembly:
WRN: Assembly Name: NLog.Extended | Domain ID: 14
WRN: A partial bind occurs when only part of the assembly display name is provided.
WRN: This might result in the binder loading an incorrect assembly.
WRN: It is recommended to provide a fully specified textual identity for the assembly,
WRN: that consists of the simple name, version, culture, and public key token.
WRN: See whitepaper http://go.microsoft.com/fwlink/?LinkId=109270 for more information and common solutions to this issue.
LOG: Appbase = file:///E:/Soboft Technology/Source Tree/GoldenBlock/goldenblock/GoldenblockApi/
LOG: Initial PrivatePath = E:\Soboft Technology\Source Tree\GoldenBlock\goldenblock\GoldenblockApi\bin
Calling assembly : NLog, Version=4.0.0.0, Culture=neutral, PublicKeyToken=5120e14c03d0593c.
===
LOG: This bind starts in default load context.
LOG: Using application configuration file: E:\Soboft Technology\Source Tree\GoldenBlock\goldenblock\GoldenblockApi\web.config
LOG: Using host configuration file: C:\Windows\Microsoft.NET\Framework64\v4.0.30319\aspnet.config
LOG: Using machine configuration file from C:\Windows\Microsoft.NET\Framework64\v4.0.30319\config\machine.config.
LOG: Policy not being applied to reference at this time (private, custom, partial, or location-based assembly bind).
LOG: Attempting download of new URL file:///C:/Windows/Microsoft.NET/Framework64/v4.0.30319/Temporary ASP.NET Files/goldenblockapi/28abe010/91022ec4/NLog.Extended.DLL.
LOG: Attempting download of new URL file:///C:/Windows/Microsoft.NET/Framework64/v4.0.30319/Temporary ASP.NET Files/goldenblockapi/28abe010/91022ec4/NLog.Extended/NLog.Extended.DLL.
LOG: Attempting download of new URL file:///E:/Soboft Technology/Source Tree/GoldenBlock/goldenblock/GoldenblockApi/bin/NLog.Extended.DLL.
LOG: Attempting download of new URL file:///E:/Soboft Technology/Source Tree/GoldenBlock/goldenblock/GoldenblockApi/bin/NLog.Extended/NLog.Extended.DLL.
LOG: Attempting download of new URL file:///C:/Windows/Microsoft.NET/Framework64/v4.0.30319/Temporary ASP.NET Files/goldenblockapi/28abe010/91022ec4/NLog.Extended.EXE.
LOG: Attempting download of new URL file:///C:/Windows/Microsoft.NET/Framework64/v4.0.30319/Temporary ASP.NET Files/goldenblockapi/28abe010/91022ec4/NLog.Extended/NLog.Extended.EXE.
LOG: Attempting download of new URL file:///E:/Soboft Technology/Source Tree/GoldenBlock/goldenblock/GoldenblockApi/bin/NLog.Extended.EXE.
LOG: Attempting download of new URL file:///E:/Soboft Technology/Source Tree/GoldenBlock/goldenblock/GoldenblockApi/bin/NLog.Extended/NLog.Extended.EXE.

2021-09-01 16:41:57.2453 Warn Error has been raised. Exception: NLog.NLogConfigurationException: Error loading extensions: NLog.Extended ---> System.IO.FileNotFoundException: Could not load file or assembly 'NLog.Extended' or one of its dependencies. The system cannot find the file specified.
   at System.Reflection.RuntimeAssembly._nLoad(AssemblyName fileName, String codeBase, Evidence assemblySecurity, RuntimeAssembly locationHint, StackCrawlMark& stackMark, IntPtr pPrivHostBinder, Boolean throwOnFileNotFound, Boolean forIntrospection, Boolean suppressSecurityChecks)
   at System.Reflection.RuntimeAssembly.InternalLoadAssemblyName(AssemblyName assemblyRef, Evidence assemblySecurity, RuntimeAssembly reqAssembly, StackCrawlMark& stackMark, IntPtr pPrivHostBinder, Boolean throwOnFileNotFound, Boolean forIntrospection, Boolean suppressSecurityChecks)
   at System.Reflection.RuntimeAssembly.InternalLoad(String assemblyString, Evidence assemblySecurity, StackCrawlMark& stackMark, IntPtr pPrivHostBinder, Boolean forIntrospection)
   at System.Reflection.RuntimeAssembly.InternalLoad(String assemblyString, Evidence assemblySecurity, StackCrawlMark& stackMark, Boolean forIntrospection)
   at System.Reflection.Assembly.Load(String assemblyString)
   at NLog.Internal.AssemblyHelpers.LoadFromName(String assemblyName)
   at NLog.Config.LoggingConfigurationParser.ParseExtensionWithAssembly(String assemblyName, String prefix)
   --- End of inner exception stack trace ---
2021-09-01 16:41:57.4102 Info Adding target FileTarget(Name=error)
2021-09-01 16:41:57.4102 Info Adding target FileTarget(Name=info)
2021-09-01 16:41:57.4561 Info Found 36 configuration items
2021-09-01 16:41:57.4881 Info Configuration initialized.
2021-09-01 16:41:57.4881 Info NLog, Version=4.0.0.0, Culture=neutral, PublicKeyToken=5120e14c03d0593c. File version: 4.6.3.9764. Product version: 4.6.3.
2021-09-01 16:49:09.3579 Info Message Template Auto Format enabled
2021-09-01 16:49:09.3579 Info Loading assembly: NLog.Extended
2021-09-01 16:49:09.3738 Error Error loading extensions. Exception: System.IO.FileNotFoundException: Could not load file or assembly 'NLog.Extended' or one of its dependencies. The system cannot find the file specified.
File name: 'NLog.Extended'
   at System.Reflection.RuntimeAssembly._nLoad(AssemblyName fileName, String codeBase, Evidence assemblySecurity, RuntimeAssembly locationHint, StackCrawlMark& stackMark, IntPtr pPrivHostBinder, Boolean throwOnFileNotFound, Boolean forIntrospection, Boolean suppressSecurityChecks)
   at System.Reflection.RuntimeAssembly.InternalLoadAssemblyName(AssemblyName assemblyRef, Evidence assemblySecurity, RuntimeAssembly reqAssembly, StackCrawlMark& stackMark, IntPtr pPrivHostBinder, Boolean throwOnFileNotFound, Boolean forIntrospection, Boolean suppressSecurityChecks)
   at System.Reflection.RuntimeAssembly.InternalLoad(String assemblyString, Evidence assemblySecurity, StackCrawlMark& stackMark, IntPtr pPrivHostBinder, Boolean forIntrospection)
   at System.Reflection.RuntimeAssembly.InternalLoad(String assemblyString, Evidence assemblySecurity, StackCrawlMark& stackMark, Boolean forIntrospection)
   at System.Reflection.Assembly.Load(String assemblyString)
   at NLog.Internal.AssemblyHelpers.LoadFromName(String assemblyName)
   at NLog.Config.LoggingConfigurationParser.ParseExtensionWithAssembly(String assemblyName, String prefix)

=== Pre-bind state information ===
LOG: DisplayName = NLog.Extended
 (Partial)
WRN: Partial binding information was supplied for an assembly:
WRN: Assembly Name: NLog.Extended | Domain ID: 2
WRN: A partial bind occurs when only part of the assembly display name is provided.
WRN: This might result in the binder loading an incorrect assembly.
WRN: It is recommended to provide a fully specified textual identity for the assembly,
WRN: that consists of the simple name, version, culture, and public key token.
WRN: See whitepaper http://go.microsoft.com/fwlink/?LinkId=109270 for more information and common solutions to this issue.
LOG: Appbase = file:///E:/Soboft Technology/Source Tree/GoldenBlock/goldenblock/GoldenblockApi/
LOG: Initial PrivatePath = E:\Soboft Technology\Source Tree\GoldenBlock\goldenblock\GoldenblockApi\bin
Calling assembly : NLog, Version=4.0.0.0, Culture=neutral, PublicKeyToken=5120e14c03d0593c.
===
LOG: This bind starts in default load context.
LOG: Using application configuration file: E:\Soboft Technology\Source Tree\GoldenBlock\goldenblock\GoldenblockApi\web.config
LOG: Using host configuration file: C:\Windows\Microsoft.NET\Framework64\v4.0.30319\aspnet.config
LOG: Using machine configuration file from C:\Windows\Microsoft.NET\Framework64\v4.0.30319\config\machine.config.
LOG: Policy not being applied to reference at this time (private, custom, partial, or location-based assembly bind).
LOG: Attempting download of new URL file:///C:/Windows/Microsoft.NET/Framework64/v4.0.30319/Temporary ASP.NET Files/goldenblockapi/28abe010/91022ec4/NLog.Extended.DLL.
LOG: Attempting download of new URL file:///C:/Windows/Microsoft.NET/Framework64/v4.0.30319/Temporary ASP.NET Files/goldenblockapi/28abe010/91022ec4/NLog.Extended/NLog.Extended.DLL.
LOG: Attempting download of new URL file:///E:/Soboft Technology/Source Tree/GoldenBlock/goldenblock/GoldenblockApi/bin/NLog.Extended.DLL.
LOG: Attempting download of new URL file:///E:/Soboft Technology/Source Tree/GoldenBlock/goldenblock/GoldenblockApi/bin/NLog.Extended/NLog.Extended.DLL.
LOG: Attempting download of new URL file:///C:/Windows/Microsoft.NET/Framework64/v4.0.30319/Temporary ASP.NET Files/goldenblockapi/28abe010/91022ec4/NLog.Extended.EXE.
LOG: Attempting download of new URL file:///C:/Windows/Microsoft.NET/Framework64/v4.0.30319/Temporary ASP.NET Files/goldenblockapi/28abe010/91022ec4/NLog.Extended/NLog.Extended.EXE.
LOG: Attempting download of new URL file:///E:/Soboft Technology/Source Tree/GoldenBlock/goldenblock/GoldenblockApi/bin/NLog.Extended.EXE.
LOG: Attempting download of new URL file:///E:/Soboft Technology/Source Tree/GoldenBlock/goldenblock/GoldenblockApi/bin/NLog.Extended/NLog.Extended.EXE.

2021-09-01 16:49:09.3738 Warn Error has been raised. Exception: NLog.NLogConfigurationException: Error loading extensions: NLog.Extended ---> System.IO.FileNotFoundException: Could not load file or assembly 'NLog.Extended' or one of its dependencies. The system cannot find the file specified.
   at System.Reflection.RuntimeAssembly._nLoad(AssemblyName fileName, String codeBase, Evidence assemblySecurity, RuntimeAssembly locationHint, StackCrawlMark& stackMark, IntPtr pPrivHostBinder, Boolean throwOnFileNotFound, Boolean forIntrospection, Boolean suppressSecurityChecks)
   at System.Reflection.RuntimeAssembly.InternalLoadAssemblyName(AssemblyName assemblyRef, Evidence assemblySecurity, RuntimeAssembly reqAssembly, StackCrawlMark& stackMark, IntPtr pPrivHostBinder, Boolean throwOnFileNotFound, Boolean forIntrospection, Boolean suppressSecurityChecks)
   at System.Reflection.RuntimeAssembly.InternalLoad(String assemblyString, Evidence assemblySecurity, StackCrawlMark& stackMark, IntPtr pPrivHostBinder, Boolean forIntrospection)
   at System.Reflection.RuntimeAssembly.InternalLoad(String assemblyString, Evidence assemblySecurity, StackCrawlMark& stackMark, Boolean forIntrospection)
   at System.Reflection.Assembly.Load(String assemblyString)
   at NLog.Internal.AssemblyHelpers.LoadFromName(String assemblyName)
   at NLog.Config.LoggingConfigurationParser.ParseExtensionWithAssembly(String assemblyName, String prefix)
   --- End of inner exception stack trace ---
2021-09-01 16:49:09.4388 Info Adding target FileTarget(Name=error)
2021-09-01 16:49:09.4388 Info Adding target FileTarget(Name=info)
2021-09-01 16:49:09.4887 Info Found 36 configuration items
2021-09-01 16:49:09.5167 Info Configuration initialized.
2021-09-01 16:49:09.5317 Info NLog, Version=4.0.0.0, Culture=neutral, PublicKeyToken=5120e14c03d0593c. File version: 4.6.3.9764. Product version: 4.6.3.
2021-09-01 16:50:49.3260 Info AppDomain Shutting down. Logger closing...
2021-09-01 16:50:49.3680 Info Logger has been shut down.
2021-09-01 17:16:03.9110 Info Message Template Auto Format enabled
2021-09-01 17:16:03.9250 Info Loading assembly: NLog.Extended
2021-09-01 17:16:03.9370 Error Error loading extensions. Exception: System.IO.FileNotFoundException: Could not load file or assembly 'NLog.Extended' or one of its dependencies. The system cannot find the file specified.
File name: 'NLog.Extended'
   at System.Reflection.RuntimeAssembly._nLoad(AssemblyName fileName, String codeBase, Evidence assemblySecurity, RuntimeAssembly locationHint, StackCrawlMark& stackMark, IntPtr pPrivHostBinder, Boolean throwOnFileNotFound, Boolean forIntrospection, Boolean suppressSecurityChecks)
   at System.Reflection.RuntimeAssembly.InternalLoadAssemblyName(AssemblyName assemblyRef, Evidence assemblySecurity, RuntimeAssembly reqAssembly, StackCrawlMark& stackMark, IntPtr pPrivHostBinder, Boolean throwOnFileNotFound, Boolean forIntrospection, Boolean suppressSecurityChecks)
   at System.Reflection.RuntimeAssembly.InternalLoad(String assemblyString, Evidence assemblySecurity, StackCrawlMark& stackMark, IntPtr pPrivHostBinder, Boolean forIntrospection)
   at System.Reflection.RuntimeAssembly.InternalLoad(String assemblyString, Evidence assemblySecurity, StackCrawlMark& stackMark, Boolean forIntrospection)
   at System.Reflection.Assembly.Load(String assemblyString)
   at NLog.Internal.AssemblyHelpers.LoadFromName(String assemblyName)
   at NLog.Config.LoggingConfigurationParser.ParseExtensionWithAssembly(String assemblyName, String prefix)

=== Pre-bind state information ===
LOG: DisplayName = NLog.Extended
 (Partial)
WRN: Partial binding information was supplied for an assembly:
WRN: Assembly Name: NLog.Extended | Domain ID: 2
WRN: A partial bind occurs when only part of the assembly display name is provided.
WRN: This might result in the binder loading an incorrect assembly.
WRN: It is recommended to provide a fully specified textual identity for the assembly,
WRN: that consists of the simple name, version, culture, and public key token.
WRN: See whitepaper http://go.microsoft.com/fwlink/?LinkId=109270 for more information and common solutions to this issue.
LOG: Appbase = file:///E:/Soboft Technology/Source Tree/GoldenBlock/goldenblock/GoldenblockApi/
LOG: Initial PrivatePath = E:\Soboft Technology\Source Tree\GoldenBlock\goldenblock\GoldenblockApi\bin
Calling assembly : NLog, Version=4.0.0.0, Culture=neutral, PublicKeyToken=5120e14c03d0593c.
===
LOG: This bind starts in default load context.
LOG: Using application configuration file: E:\Soboft Technology\Source Tree\GoldenBlock\goldenblock\GoldenblockApi\web.config
LOG: Using host configuration file: C:\Windows\Microsoft.NET\Framework64\v4.0.30319\aspnet.config
LOG: Using machine configuration file from C:\Windows\Microsoft.NET\Framework64\v4.0.30319\config\machine.config.
LOG: Policy not being applied to reference at this time (private, custom, partial, or location-based assembly bind).
LOG: Attempting download of new URL file:///C:/Windows/Microsoft.NET/Framework64/v4.0.30319/Temporary ASP.NET Files/goldenblockapi/28abe010/91022ec4/NLog.Extended.DLL.
LOG: Attempting download of new URL file:///C:/Windows/Microsoft.NET/Framework64/v4.0.30319/Temporary ASP.NET Files/goldenblockapi/28abe010/91022ec4/NLog.Extended/NLog.Extended.DLL.
LOG: Attempting download of new URL file:///E:/Soboft Technology/Source Tree/GoldenBlock/goldenblock/GoldenblockApi/bin/NLog.Extended.DLL.
LOG: Attempting download of new URL file:///E:/Soboft Technology/Source Tree/GoldenBlock/goldenblock/GoldenblockApi/bin/NLog.Extended/NLog.Extended.DLL.
LOG: Attempting download of new URL file:///C:/Windows/Microsoft.NET/Framework64/v4.0.30319/Temporary ASP.NET Files/goldenblockapi/28abe010/91022ec4/NLog.Extended.EXE.
LOG: Attempting download of new URL file:///C:/Windows/Microsoft.NET/Framework64/v4.0.30319/Temporary ASP.NET Files/goldenblockapi/28abe010/91022ec4/NLog.Extended/NLog.Extended.EXE.
LOG: Attempting download of new URL file:///E:/Soboft Technology/Source Tree/GoldenBlock/goldenblock/GoldenblockApi/bin/NLog.Extended.EXE.
LOG: Attempting download of new URL file:///E:/Soboft Technology/Source Tree/GoldenBlock/goldenblock/GoldenblockApi/bin/NLog.Extended/NLog.Extended.EXE.

2021-09-01 17:16:03.9370 Warn Error has been raised. Exception: NLog.NLogConfigurationException: Error loading extensions: NLog.Extended ---> System.IO.FileNotFoundException: Could not load file or assembly 'NLog.Extended' or one of its dependencies. The system cannot find the file specified.
   at System.Reflection.RuntimeAssembly._nLoad(AssemblyName fileName, String codeBase, Evidence assemblySecurity, RuntimeAssembly locationHint, StackCrawlMark& stackMark, IntPtr pPrivHostBinder, Boolean throwOnFileNotFound, Boolean forIntrospection, Boolean suppressSecurityChecks)
   at System.Reflection.RuntimeAssembly.InternalLoadAssemblyName(AssemblyName assemblyRef, Evidence assemblySecurity, RuntimeAssembly reqAssembly, StackCrawlMark& stackMark, IntPtr pPrivHostBinder, Boolean throwOnFileNotFound, Boolean forIntrospection, Boolean suppressSecurityChecks)
   at System.Reflection.RuntimeAssembly.InternalLoad(String assemblyString, Evidence assemblySecurity, StackCrawlMark& stackMark, IntPtr pPrivHostBinder, Boolean forIntrospection)
   at System.Reflection.RuntimeAssembly.InternalLoad(String assemblyString, Evidence assemblySecurity, StackCrawlMark& stackMark, Boolean forIntrospection)
   at System.Reflection.Assembly.Load(String assemblyString)
   at NLog.Internal.AssemblyHelpers.LoadFromName(String assemblyName)
   at NLog.Config.LoggingConfigurationParser.ParseExtensionWithAssembly(String assemblyName, String prefix)
   --- End of inner exception stack trace ---
2021-09-01 17:16:04.0239 Info Adding target FileTarget(Name=error)
2021-09-01 17:16:04.0239 Info Adding target FileTarget(Name=info)
2021-09-01 17:16:04.0739 Info Found 36 configuration items
2021-09-01 17:16:04.0959 Info Configuration initialized.
2021-09-01 17:16:04.1059 Info NLog, Version=4.0.0.0, Culture=neutral, PublicKeyToken=5120e14c03d0593c. File version: 4.6.3.9764. Product version: 4.6.3.
2021-09-01 17:29:32.8059 Info AppDomain Shutting down. Logger closing...
2021-09-01 17:29:32.8359 Info Logger has been shut down.
